Style #,Vendor Item #,For,Vendor Categories,Our Categories,Approx Semi-mount Gram weight,Stone Breakdown,Amount of Diamonds,Stone Approx. Weight,Diamond Color,Diamond Quality,14kt gold cost,18kt gold cost,plat metal cost,Setting Labor,polish labor,head,Melee cost,shipping cost,Shipping to customer,14kt total cost,18kt total cost,Plat total cost,14kt Website Price,18kt Website Price,Plat Website Price
 Kaleigh Wedding Band,50277-W,,Channel Set,Diamond Bands,3.008303,21 - .01PT Round,21,0.21,G - H,VS,$156,222.614422,270.74727,31.5,10,,63,10,25,295.5,362.114422,410.24727,744.66, $ 912.53 ," $ 1,033.82 "
 Kaitlin Wedding Band,50343-W,,Curved Bands,Curved Bands,4.824854,14 - .0075PT Round,14,0.105,G - H,VS,$241,357.039196,434.23686,21,10,,31.5,10,25,338.5,454.539196,531.73686,853.02," $ 1,145.44 "," $ 1,339.98 "
 Kassandra Wedding Band,50345-W-1,1,Prong Set,Diamond Bands,2.726226,15 - .015PT Round,15,0.225,G - H,VS,$142,201.740724,245.36034,22.5,10,,67.5,10,25,277,336.740724,380.36034,698.04, $ 848.59 , $ 958.51 
 Alisa Wedding Band,50471-W,,Prong Set,Diamond Bands,2.9341295,21 - .0075PT Round,21,0.1575,G - H,VS,$152,217.125583,264.071655,31.5,10,,47.25,10,25,275.75,340.875583,387.821655,694.89, $ 859.01 , $ 977.31 
 Savannah Wedding Band,50494-W,,Curved Bands,Curved Bands,3.15665,15 - .015PT Round,15,0.225,G - H,VS,$163,233.5921,284.0985,22.5,10,,67.5,10,25,298,368.5921,419.0985,750.96, $ 928.85 ," $ 1,056.13 "
 Shayla Wedding Band,50518-W,,Prong Set,Diamond Bands,1.91265,19 - .014PT Round,19,0.266,G - H,VS,$104,141.5361,172.1385,28.5,10,,79.8,10,25,257.3,294.8361,325.4385,648.396, $ 742.99 , $ 820.11 
 Haley Wedding Band,50530-W-A,1/2,Curved Bands,Curved Bands,2.6435,23 - .006PT Round,23,0.138,G - H,VS,$138,195.619,237.915,34.5,10,,41.4,10,25,258.9,316.519,358.815,652.428, $ 797.63 , $ 904.21 
 Ellie Wedding Band,50531-W-C,1,Curved Bands,Curved Bands,2.297668,22 - .008PT Round,22,0.176,G - H,VS,$122,170.027432,206.79012,33,10,,52.8,10,25,252.8,300.827432,337.59012,637.056, $ 758.09 , $ 850.73 
 Kiera Wedding Band,50533-W-A,1/3 - 3/4,Gold Bands,Classic Bands,1.742844,No stones,0,,,,$96,128.970456,156.85596,0,10,,0,10,25,141,173.970456,201.85596,355.32, $ 438.41 , $ 508.68 
 Rachel Wedding Band,50534-W-A,1/3 - 3/4,Prong Set,Diamond Bands,1.645501,24 - .005PT Round,24,0.12,G - H,VS,$91,121.767074,148.09509,36,10,,36,10,25,208,238.767074,265.09509,524.16, $ 601.69 , $ 668.04 
 Zoe Wedding Band,50536-W-A,1/4 - 1/3,Curved Bands,Curved Bands,1.47725,24 - .003PT Round,24,0.072,G - H,VS,$81,109.3165,132.9525,36,10,,21.6,10,25,183.6,211.9165,235.5525,462.672, $ 534.03 , $ 593.59 
 Amya Wedding Band,50537-W-A,1/4 - 1/3,Curved Bands,Curved Bands,1.41505,21 - .004PT Round,21,0.084,G - H,VS,$78,104.7137,127.3545,31.5,10,,25.2,10,25,179.7,206.4137,229.0545,452.844, $ 520.16 , $ 577.22 
 Kasey Wedding Band,50541-W-A,1/4 - 1/3,Prong Set,Diamond Bands,1.3995,"6 - .003PT Round ,14 - .004PT Round",20,0.074,G - H,VS,$78,103.563,125.955,30,10,,22.2,10,25,175.2,200.763,223.155,441.504, $ 505.92 , $ 562.35 
 Valentina Wedding Band,50544-W-A,1/4 - 1/3,Curved Bands,Curved Bands,1.555,20 - .004PT Round,20,0.08,G - H,VS,$87,115.07,139.95,30,10,,24,10,25,186,214.07,238.95,468.72, $ 539.46 , $ 602.15 
 Callie Wedding Band,50545-W-A,1/4 - 1/2,Curved Bands,Curved Bands,1.555,26 - .004PT Round,26,0.104,G - H,VS,$87,115.07,139.95,39,10,,31.2,10,25,202.2,230.27,255.15,509.544, $ 580.28 , $ 642.98 
 Stella Wedding Band,50546-W-A,1/4 - 1/3,Curved Bands,Curved Bands,1.6172,29 - .003PT Round,29,0.087,G - H,VS,$90,119.6728,145.548,43.5,10,,26.1,10,25,204.6,234.2728,260.148,515.592, $ 590.37 , $ 655.57 
 Shayna Wedding Band,50548-W,,Prong Set,Diamond Bands,1.498398,26 - .003PT Round,26,0.078,G - H,VS,$82,110.881452,134.85582,39,10,,23.4,10,25,189.4,218.281452,242.25582,477.288, $ 550.07 , $ 610.48 
 Kendal Wedding Band,50549-W,,Prong Set,Diamond Bands,1.509594,27 - .003PT Round,27,0.081,G - H,VS,$83,111.709956,135.86346,40.5,10,,24.3,10,25,192.8,221.509956,245.66346,485.856, $ 558.21 , $ 619.07 
 Emilia Wedding Band,50550-W-A,1/4 - 1/3,Prong Set,Diamond Bands,1.338544,27 - .003PT Round,27,0.081,G - H,VS,$75,99.052256,120.46896,40.5,10,,24.3,10,25,184.8,208.852256,230.26896,465.696, $ 526.31 , $ 580.28 
 Lizeth Wedding Band,50552-W-A,1/3 - 3/4,Prong Set,Diamond Bands,1.3741535,27 - .004PT Round,27,0.108,G - H,VS,$76,101.687359,123.673815,40.5,10,,32.4,10,25,193.9,219.587359,241.573815,488.628, $ 553.36 , $ 608.77 
 Kassidy Wedding Band,50557-W-1/2,1/2,Curved Bands,Curved Bands,2.0215,27 - .005PT Round,27,0.135,G - H,VS,$109,149.591,181.935,40.5,10,,40.5,10,25,235,275.591,307.935,592.2, $ 694.49 , $ 776.00 
 Elena Wedding Band,50558-W-1,1,Curved Bands,Curved Bands,1.81935,27 - .005PT Round,27,0.135,G - H,VS,$99,134.6319,163.7415,40.5,10,,40.5,10,25,225,260.6319,289.7415,567, $ 656.79 , $ 730.15 
 Renee Wedding Band,50559-W-A,1/4 - 1/2,Curved Bands,Curved Bands,1.555,26 - .005PT Round,26,0.13,G - H,VS,$87,115.07,139.95,39,10,,39,10,25,210,238.07,262.95,529.2, $ 599.94 , $ 662.63 
 Amirah Wedding Band,50567-W,,Bezel Set,Diamond Bands,2.1459,7 - .01PT Round,7,0.07,G - H,VS,$115,158.7966,193.131,10.5,10,,21,10,25,191.5,235.2966,269.631,482.58, $ 592.95 , $ 679.47 
 Abagail Wedding Band,50568-W-A,1/3 - 3/4,Prong Set,Diamond Bands,1.97485,24 - .004PT Round,24,0.096,G - H,VS,$107,146.1389,177.7365,36,10,,28.8,10,25,216.8,255.9389,287.5365,546.336, $ 644.97 , $ 724.59 
 Allisson Wedding Band,50569-W,,Prong Set,Diamond Bands,3.18775,46 - .006PT Round,46,0.276,G - H,VS,$164,235.8935,286.8975,69,10,,82.8,10,25,360.8,432.6935,483.6975,909.216," $ 1,090.39 "," $ 1,218.92 "
 Zara Wedding Band,50570-W,,Prong Set,Diamond Bands,3.11,46 - .006PT Round,46,0.276,G - H,VS,$160,230.14,279.9,69,10,,82.8,10,25,356.8,426.94,476.7,899.136," $ 1,075.89 "," $ 1,201.28 "
 Angie Wedding Band,50618-W,,Pave,Diamond Bands,3.37435,42 - .01PT Round,42,0.42,G - H,VS,$173,249.7019,303.6915,63,10,,126,10,25,407,483.7019,537.6915,1025.64," $ 1,218.93 "," $ 1,354.98 "
 Talia Wedding Band,50648-W,,Curved Bands,Curved Bands,2.5813,18 - .015PT Round,18,0.27,G - H,VS,$135,191.0162,232.317,27,10,,81,10,25,288,344.0162,385.317,725.76, $ 866.92 , $ 971.00 
 Carissa Wedding Band,50650-W,,Curved Bands,Curved Bands,3.1411,No stones,0,,,,$162,232.4414,282.699,0,10,,0,10,25,207,277.4414,327.699,521.64, $ 699.15 , $ 825.80 
 Dayanara Wedding Band,50659-W,,Curved Bands,Curved Bands,3.11,21 - .0075PT Round,21,0.1575,G - H,VS,$160,230.14,279.9,31.5,10,,47.25,10,25,283.75,353.89,403.65,715.05, $ 891.80 ," $ 1,017.20 "
 Mayra Wedding Band,50660-W,,Curved Bands,Curved Bands,2.1148,25 - .004PT Round,25,0.1,G - H,VS,$113,156.4952,190.332,37.5,10,,30,10,25,225.5,268.9952,302.832,568.26, $ 677.87 , $ 763.14 
 Londyn Wedding Band,50667-W,,Channel Set,Diamond Bands,2.75235,21 - .0075PT Round,21,0.1575,G - H,VS,$144,203.6739,247.7115,31.5,10,,47.25,10,25,267.75,327.4239,371.4615,674.73, $ 825.11 , $ 936.08 
 Chasity Wedding Band,50669-W,,Prong Set,Diamond Bands,3.96525,11 - .0075PT Round,11,0.0825,G - H,VS,$201,293.4285,356.8725,16.5,10,,24.75,10,25,287.25,379.6785,443.1225,723.87, $ 956.79 ," $ 1,116.67 "
 Tara Wedding Band,50774-W,,Curved Bands,Curved Bands,1.9904,25 - .004PT Round,25,0.1,G - H,VS,$108,147.2896,179.136,37.5,10,,30,10,25,220.5,259.7896,291.636,555.66, $ 654.67 , $ 734.92 
 Madelynn Wedding Band,50776-W,,Prong Set,Diamond Bands,2.5813,12 - .0075PT Round,12,0.09,G - H,VS,$135,191.0162,232.317,18,10,,27,10,25,225,281.0162,322.317,567, $ 708.16 , $ 812.24 
 Yoselin Wedding Band,50779-W,,Curved Bands,Curved Bands,3.6076,"4 - .0075PT Round ,4 - .01PT Round ,6 - .0125PT Round",14,0.145,G - H,VS,$184,266.9624,324.684,21,10,,43.5,10,25,293.5,376.4624,434.184,739.62, $ 948.69 ," $ 1,094.14 "
 Kaylie Wedding Band,50785-W,,Prong Set,Diamond Bands,3.6076,17 - .0075PT Round,17,0.1275,G - H,VS,$184,266.9624,324.684,25.5,10,,38.25,10,25,292.75,375.7124,433.434,737.73, $ 946.80 ," $ 1,092.25 "
 Meghan Wedding Band,50799-W,,Curved Bands,Curved Bands,2.7679,18 - .015PT Round,18,0.27,G - H,VS,$144,204.8246,249.111,27,10,,81,10,25,297,357.8246,402.111,748.44, $ 901.72 ," $ 1,013.32 "
 Lea Wedding Band,50804-W,,Curved Bands,Curved Bands,2.5813,15 - .0075PT Round,15,0.1125,G - H,VS,$135,191.0162,232.317,22.5,10,,33.75,10,25,236.25,292.2662,333.567,595.35, $ 736.51 , $ 840.59 
 Kiersten Wedding Band,50805-W,,Prong Set,Diamond Bands,2.2703,21 - .006PT Round,21,0.126,G - H,VS,$121,168.0022,204.327,31.5,10,,37.8,10,25,235.3,282.3022,318.627,592.956, $ 711.40 , $ 802.94 
 Karlee Wedding Band,50806-W,,Curved Bands,Curved Bands,3.5765,No stones,0,,,,$182,264.661,321.885,0,10,,0,10,25,227,309.661,366.885,572.04, $ 780.35 , $ 924.55 
 Edith Wedding Band,50815-W,,Prong Set,Diamond Bands,2.41025,27 - .005PT Round,27,0.135,G - H,VS,$127,178.3585,216.9225,40.5,10,,40.5,10,25,253,304.3585,342.9225,637.56, $ 766.98 , $ 864.16 
 Dania Wedding Band,50817-W,,Curved Bands,Curved Bands,2.9545,No stones,0,,,,$153,218.633,265.905,0,10,,0,10,25,198,263.633,310.905,498.96, $ 664.36 , $ 783.48 
 Tabitha Wedding Band,50824-W-A,1/2 - 3/4,Curved Bands,Curved Bands,2.177,21 - .0125PT Round,21,0.2625,G - H,VS,$116,161.098,195.93,31.5,10,,78.75,10,25,271.25,316.348,351.18,683.55, $ 797.20 , $ 884.97 
 Aniyah Wedding Band,50827-W,,Curved Bands,Curved Bands,2.6435,20 - .01PT Round,20,0.2,G - H,VS,$138,195.619,237.915,30,10,,60,10,25,273,330.619,372.915,687.96, $ 833.16 , $ 939.75 
 Maren Wedding Band,50839-W,,Curved Bands,Curved Bands,2.9545,23 - .005PT Round,23,0.115,G - H,VS,$153,218.633,265.905,34.5,10,,34.5,10,25,267,332.633,379.905,672.84, $ 838.24 , $ 957.36 
 Liberty Wedding Band,50842-W-1,1,Curved Bands,Curved Bands,2.488,22 - .006PT Round,22,0.132,G - H,VS,$131,184.112,223.92,33,10,,39.6,10,25,248.6,301.712,341.52,626.472, $ 760.31 , $ 860.63 
 Cheyanne Wedding Band,50843-W-1,1,Curved Bands,Curved Bands,2.3325,20 - .006PT Round,20,0.12,G - H,VS,$124,172.605,209.925,30,10,,36,10,25,235,283.605,320.925,592.2, $ 714.68 , $ 808.73 
 Michaela Wedding Band,50844-W-A,1/2 - 3/4,Curved Bands,Curved Bands,2.6435,17 - .0125PT Round,17,0.2125,G - H,VS,$138,195.619,237.915,25.5,10,,63.75,10,25,272.25,329.869,372.165,686.07, $ 831.27 , $ 937.86 
 Margaret Wedding Band,50846-W-A,1/2 - 3/4,Curved Bands,Curved Bands,2.3325,16 - .0075PT Round,16,0.12,G - H,VS,$124,172.605,209.925,24,10,,36,10,25,229,277.605,314.925,577.08, $ 699.56 , $ 793.61 
 Brooklyn Wedding Band,50848-W-A,1/2 - 3/4,Curved Bands,Curved Bands,2.6435,15 - .01PT Round,15,0.15,G - H,VS,$138,195.619,237.915,22.5,10,,45,10,25,250.5,308.119,350.415,631.26, $ 776.46 , $ 883.05 
 Milagros Wedding Band,50849-W,,Curved Bands,Curved Bands,2.6435,20 - .006PT Round,20,0.12,G - H,VS,$138,195.619,237.915,30,10,,36,10,25,249,306.619,348.915,627.48, $ 772.68 , $ 879.27 
 Bridget Wedding Band,50851-W,,Curved Bands,Curved Bands,3.732,16 - .01PT Round,16,0.16,G - H,VS,$190,276.168,335.88,24,10,,48,10,25,307,393.168,452.88,773.64, $ 990.78 ," $ 1,141.26 "
 Autumn Wedding Band,50853-W-10X5,1,Prong Set,Diamond Bands,2.0215,27 - .004PT Round,27,0.108,G - H,VS,$109,149.591,181.935,40.5,10,,32.4,10,25,226.9,267.491,299.835,571.788, $ 674.08 , $ 755.58 
 Jaiden Wedding Band,50855-W,,Curved Bands,Curved Bands,2.488,No stones,0,,,,$131,184.112,223.92,0,10,,0,10,25,176,229.112,268.92,443.52, $ 577.36 , $ 677.68 
 Emilie Wedding Band,50859-W,,Curved Bands,Curved Bands,4.976,18 - .006PT Round,18,0.108,G - H,VS,$249,368.224,447.84,27,10,,32.4,10,25,353.4,472.624,552.24,890.568," $ 1,191.01 "," $ 1,391.64 "
 Shannon Wedding Band,50862-W,,Curved Bands,Curved Bands,2.0215,22 - .005PT Round,22,0.11,G - H,VS,$109,149.591,181.935,33,10,,33,10,25,220,260.591,292.935,554.4, $ 656.69 , $ 738.20 
 Rose Wedding Band,50867-W,,Prong Set,Diamond Bands,1.7105,27 - .004PT Round,27,0.108,G - H,VS,$94,126.577,153.945,40.5,10,,32.4,10,25,211.9,244.477,271.845,533.988, $ 616.08 , $ 685.05 
 Ashanti Wedding Band,50870-W,,Curved Bands,Curved Bands,2.3325,31 - .006PT Round,31,0.186,G - H,VS,$124,172.605,209.925,46.5,10,,55.8,10,25,271.3,319.905,357.225,683.676, $ 806.16 , $ 900.21 
 Katelynn Wedding Band,50872-W,,Curved Bands,Curved Bands,2.6435,17 - .0075PT Round,17,0.1275,G - H,VS,$138,195.619,237.915,25.5,10,,38.25,10,25,246.75,304.369,346.665,621.81, $ 767.01 , $ 873.60 
 Hana Wedding Band,50884-W,,Pave,Diamond Bands,4.8205,49 - .0125PT Round,49,0.6125,G - H,VS,$241,356.717,433.845,73.5,10,,183.75,10,25,543.25,658.967,736.095,1368.99," $ 1,660.60 "," $ 1,854.96 "
 Janiah Wedding Band,50886-W,,Curved Bands,Curved Bands,2.488,19 - .01PT Round,19,0.19,G - H,VS,$131,184.112,223.92,28.5,10,,57,10,25,261.5,314.612,354.42,658.98, $ 792.82 , $ 893.14 
 Miriam Wedding Band,50890-W-1,1,Curved Bands,Curved Bands,2.6435,25 - .01PT Round,25,0.25,G - H,VS,$138,195.619,237.915,37.5,10,,75,10,25,295.5,353.119,395.415,744.66, $ 889.86 , $ 996.45 
 Trinity Wedding Band,50891-W,,Prong Set,Diamond Bands,2.0215,19 - .0125PT Round,19,0.2375,G - H,VS,$109,149.591,181.935,28.5,10,,71.25,10,25,253.75,294.341,326.685,639.45, $ 741.74 , $ 823.25 
 Ashly Wedding Band,50892-W,,Prong Set,Diamond Bands,1.7105,21 - .01PT Round,21,0.21,G - H,VS,$94,126.577,153.945,31.5,10,,63,10,25,233.5,266.077,293.445,588.42, $ 670.51 , $ 739.48 
 Raelynn Wedding Band,50893-W,,Prong Set,Diamond Bands,1.555,23 - .006PT Round,23,0.138,G - H,VS,$87,115.07,139.95,34.5,10,,41.4,10,25,207.9,235.97,260.85,523.908, $ 594.64 , $ 657.34 
 Jayda Wedding Band,50895-W,,Curved Bands,Curved Bands,1.7105,21 - .01PT Round,21,0.21,G - H,VS,$94,126.577,153.945,31.5,10,,63,10,25,233.5,266.077,293.445,588.42, $ 670.51 , $ 739.48 
 Arielle Wedding Band,50900-W-1/3,1/3,Curved Bands,Curved Bands,2.6435,21 - .006PT Round,21,0.126,G - H,VS,$138,195.619,237.915,31.5,10,,37.8,10,25,252.3,309.919,352.215,635.796, $ 781.00 , $ 887.58 
 Jazlyn Wedding Band,50902-W-10X5,,Prong Set,Diamond Bands,2.0215,27 - .004PT Round,27,0.108,G - H,VS,$109,149.591,181.935,40.5,10,,32.4,10,25,226.9,267.491,299.835,571.788, $ 674.08 , $ 755.58 
 Brittany Wedding Band,50905-W-1,1,Curved Bands,Curved Bands,1.7105,No stones,0,,,,$94,126.577,153.945,0,10,,0,10,25,139,171.577,198.945,350.28, $ 432.37 , $ 501.34 
 Sophie Wedding Band,50907-W,,Prong Set,Diamond Bands,1.7105,23 - .006PT Round,23,0.138,G - H,VS,$94,126.577,153.945,34.5,10,,41.4,10,25,214.9,247.477,274.845,541.548, $ 623.64 , $ 692.61 
 Rowan Wedding Band,50908-W,,Prong Set,Diamond Bands,1.7105,23 - .006PT Round,23,0.138,G - H,VS,$94,126.577,153.945,34.5,10,,41.4,10,25,214.9,247.477,274.845,541.548, $ 623.64 , $ 692.61 
 Selena Wedding Band,50909-W,,Prong Set,Diamond Bands,1.7105,23 - .006PT Round,23,0.138,G - H,VS,$94,126.577,153.945,34.5,10,,41.4,10,25,214.9,247.477,274.845,541.548, $ 623.64 , $ 692.61 
 Irene Wedding Band,50910-W,,Prong Set,Diamond Bands,2.6435,15 - .0125PT Round,15,0.1875,G - H,VS,$147,195.619,237.915,22.5,10,,56.25,10,25,270.75,319.369,361.665,682.29, $ 804.81 , $ 911.40 
 Mckenna Wedding Band,50911-W,,Curved Bands,Curved Bands,2.6435,20 - .006PT Round,20,0.12,G - H,VS,$138,195.619,237.915,30,10,,36,10,25,249,306.619,348.915,627.48, $ 772.68 , $ 879.27 
 Quinn Wedding Band,50915-W,,Curved Bands,Curved Bands,2.0215,21 - .0075PT Round,21,0.1575,G - H,VS,$109,149.591,181.935,31.5,10,,47.25,10,25,232.75,273.341,305.685,586.53, $ 688.82 , $ 770.33 
 Lena Wedding Band,50916-W,,Prong Set,Diamond Bands,1.555,19 - .006PT Round,19,0.114,G - H,VS,$87,115.07,139.95,28.5,10,,34.2,10,25,194.7,222.77,247.65,490.644, $ 561.38 , $ 624.08 
 Kiara Wedding Band,50917-W,,Prong Set,Diamond Bands,1.555,19 - .006PT Round,19,0.114,G - H,VS,$87,115.07,139.95,28.5,10,,34.2,10,25,194.7,222.77,247.65,490.644, $ 561.38 , $ 624.08 
 Angelique Wedding Band,50919-W,,Curved Bands,Curved Bands,1.555,19 - .006PT Round,19,0.114,G - H,VS,$87,115.07,139.95,28.5,10,,34.2,10,25,194.7,222.77,247.65,490.644, $ 561.38 , $ 624.08 
 Amina Wedding Band,50920-W,,Prong Set,Diamond Bands,1.555,19 - .006PT Round,19,0.114,G - H,VS,$87,115.07,139.95,28.5,10,,34.2,10,25,194.7,222.77,247.65,490.644, $ 561.38 , $ 624.08 
 Nayeli Wedding Band,50921-W,,Prong Set,Diamond Bands,1.555,19 - .006PT Round,19,0.114,G - H,VS,$87,115.07,139.95,28.5,10,,34.2,10,25,194.7,222.77,247.65,490.644, $ 561.38 , $ 624.08 
 Kaylynn Wedding Band,50924-W,,Prong Set,Diamond Bands,1.555,23 - .006PT Round,23,0.138,G - H,VS,$87,115.07,139.95,34.5,10,,41.4,10,25,207.9,235.97,260.85,523.908, $ 594.64 , $ 657.34 
 Raina Wedding Band,50925-W,,Prong Set,Diamond Bands,3.421,"2 - .006PT Round ,4 - .0075PT Round ,4 - .015PT Round ,4 - .0175PT Round",14,0.172,G - H,VS,$184,253.154,307.89,21,10,,51.6,10,25,301.6,370.754,425.49,760.032, $ 934.30 ," $ 1,072.23 "
 Lauryn Wedding Band,50926-W,,Prong Set,Diamond Bands,3.732,"2 - .006PT Round ,4 - .0075PT Round ,4 - .015PT Round ,4 - .0175PT Round ,16 - .004PT Round ,38 - .005PT Round",68,0.426,G - H,VS,$199,276.168,335.88,102,10,,127.8,10,25,473.8,550.968,610.68,1193.976," $ 1,388.44 "," $ 1,538.91 "
 Marilyn Wedding Band,50932-W,,Prong Set,Diamond Bands,2.488,19 - .0125PT Round,19,0.2375,G - H,VS,$131,184.112,223.92,28.5,10,,71.25,10,25,275.75,328.862,368.67,694.89, $ 828.73 , $ 929.05 
 Danna Wedding Band,50935-W,,Prong Set,Diamond Bands,1.78825,35 - .0075PT Round,35,0.2625,G - H,VS,$98,132.3305,160.9425,52.5,10,,78.75,10,25,274.25,308.5805,337.1925,691.11, $ 777.62 , $ 849.73 
 Ashlynn Wedding Band,50936-W,,Curved Bands,Curved Bands,2.6746,17 - .015PT Round,17,0.255,G - H,VS,$140,197.9204,240.714,25.5,10,,76.5,10,25,287,344.9204,387.714,723.24, $ 869.20 , $ 977.04 
 Jaqueline Wedding Band,50938-W,,Curved Bands,Curved Bands,1.60165,8 - .005PT Round,8,0.04,G - H,VS,$89,118.5221,144.1485,12,10,,12,10,25,158,187.5221,213.1485,398.16, $ 472.56 , $ 537.13 
 Brooklynn Wedding Band,50940-W,,Prong Set,Diamond Bands,1.78825,35 - .0075PT Round,35,0.2625,G - H,VS,$98,132.3305,160.9425,52.5,10,,78.75,10,25,274.25,308.5805,337.1925,691.11, $ 777.62 , $ 849.73 
 Macey Wedding Band,50944-W,,Curved Bands,Curved Bands,2.1459,18 - .0125PT Round,18,0.225,G - H,VS,$115,158.7966,193.131,27,10,,67.5,10,25,254.5,298.2966,332.631,641.34, $ 751.71 , $ 838.23 
 Jazmine Wedding Band,50946-W,,Prong Set,Diamond Bands,2.7057,12 - .01PT Round,12,0.12,G - H,VS,$141,200.2218,243.513,18,10,,36,10,25,240,299.2218,342.513,604.8, $ 754.04 , $ 863.13 
 Larissa Wedding Band,50947-W,,Gold Bands,Classic Bands,4.86715,No stones,0,,,,$243,360.1691,438.0435,0,10,,0,10,25,288,405.1691,483.0435,725.76," $ 1,021.03 "," $ 1,217.27 "
 Hailey Wedding Band,82385-1-W2,1,Curved Bands,Curved Bands,3.29038,No stones,0,,,,$169,243.48812,296.1342,0,10,,0,10,25,214,288.48812,341.1342,539.28, $ 726.99 , $ 859.66 
 Mckayla Wedding Band,82652-1-W,1,Gold Bands,Classic Bands,2.90474,No stones,0,,,,$151,214.95076,261.4266,0,10,,0,10,25,196,259.95076,306.4266,493.92, $ 655.08 , $ 772.20 
 Greta Wedding Band,82855-A/W,1/4,Curved Bands,Curved Bands,4.5095,11 - .0075PT Round,11,0.0825,G - H,VS,$227,333.703,405.855,16.5,10,,24.75,10,25,313.25,419.953,492.105,789.39," $ 1,058.28 "," $ 1,240.10 "
 Katherine Wedding Band,83090-W,,Prong Set,Diamond Bands,2.72125,13 - .015PT Round,13,0.195,G - H,VS,$142,201.3725,244.9125,19.5,10,,58.5,10,25,265,324.3725,367.9125,667.8, $ 817.42 , $ 927.14 
 Imani Wedding Band,83195-W,,Prong Set,Diamond Bands,2.97005,19 - .0125PT Round,19,0.2375,G - H,VS,$154,219.7837,267.3045,28.5,10,,71.25,10,25,298.75,364.5337,412.0545,752.85, $ 918.62 ," $ 1,038.38 "
 Karly Wedding Band,83493-5-W,1/2,Prong Set,Diamond Bands,2.19255,18 - .01PT Round,18,0.18,G - H,VS,$117,162.2487,197.3295,27,10,,54,10,25,243,288.2487,323.3295,612.36, $ 726.39 , $ 814.79 
 Kamila Wedding Band,83497-7X5-W,?,Prong Set,Diamond Bands,2.84565,18 - .0075PT Round,18,0.135,G - H,VS,$148,210.5781,256.1085,27,10,,40.5,10,25,260.5,323.0781,368.6085,656.46, $ 814.16 , $ 928.89 
 Kaiya Wedding Band,83499-5-W,1/2,Curved Bands,Curved Bands,2.34805,17 - .0075PT Round,17,0.1275,G - H,VS,$124,173.7557,211.3245,25.5,10,,38.25,10,25,232.75,282.5057,320.0745,586.53, $ 711.91 , $ 806.59 
 Georgia Wedding Band,83556-W,,Curved Bands,Curved Bands,3.03225,12 - .0075PT Round,12,0.09,G - H,VS,$157,224.3865,272.9025,18,10,,27,10,25,247,314.3865,362.9025,622.44, $ 792.25 , $ 914.51 
 Mary Wedding Band,84045-1-W,1,Prong Set,Diamond Bands,2.19255,18 - .005PT Round,18,0.09,G - H,VS,$117,162.2487,197.3295,27,10,,27,10,25,216,261.2487,296.3295,544.32, $ 658.35 , $ 746.75 
 Mary Wedding Band,84045-1/2-W,1/2,Prong Set,Diamond Bands,2.5191,14 - .005PT Round,14,0.07,G - H,VS,$133,186.4134,226.719,21,10,,21,10,25,220,273.4134,313.719,554.4, $ 689.00 , $ 790.57 
 Annabel Wedding Band,84051-5-W,1/2,Curved Bands,Curved Bands,2.06815,18 - .01PT Round,18,0.18,G - H,VS,$111,153.0431,186.1335,27,10,,54,10,25,237,279.0431,312.1335,597.24, $ 703.19 , $ 786.58 
 Cristina Wedding Band,84277-W,,Prong Set,Diamond Bands,3.37435,16 - .01PT Round,16,0.16,G - H,VS,$173,249.7019,303.6915,24,10,,48,10,25,290,366.7019,420.6915,730.8, $ 924.09 ," $ 1,060.14 "
 Melany Wedding Band,84326-W,,Curved Bands,Curved Bands,3.11,18 - .0075PT Round,18,0.135,G - H,VS,$160,230.14,279.9,27,10,,40.5,10,25,272.5,342.64,392.4,686.7, $ 863.45 , $ 988.85 
 Jordan Wedding Band,84329-W,,Curved Bands,Curved Bands,3.2655,"18 - .0035PT Round ,29 - .005PT Round",47,0.208,G - H,VS,$168,241.647,293.895,70.5,10,,62.4,10,25,345.9,419.547,471.795,871.668," $ 1,057.26 "," $ 1,188.92 "
 Alani Wedding Band,84353-W-1,1,Curved Bands,Curved Bands,2.177,48 - .004PT Round,48,0.192,G - H,VS,$116,161.098,195.93,72,10,,57.6,10,25,290.6,335.698,370.53,732.312, $ 845.96 , $ 933.74 